%YAML 1.1
%TAG !u! tag:unity3d.com,2011:
--- !u!74 &7400000
AnimationClip:
  m_ObjectHideFlags: 0
  m_PrefabParentObject: {fileID: 0}
  m_PrefabInternal: {fileID: 0}
  m_Name: ibrahim_attack2_anim
  serializedVersion: 6
  m_Legacy: 0
  m_Compressed: 0
  m_UseHighQualityCurve: 1
  m_RotationCurves: []
  m_CompressedRotationCurves: []
  m_EulerCurves: []
  m_PositionCurves: []
  m_ScaleCurves: []
  m_FloatCurves: []
  m_PPtrCurves:
  - curve:
    - time: 0
      value: {fileID: 21300000, guid: 1e34db0773f384c109179d40c4d83f72, type: 3}
    - time: 0.083333336
      value: {fileID: 21300000, guid: 9b89d7613b81c4efb818e861a57819f0, type: 3}
    - time: 0.16666667
      value: {fileID: 21300000, guid: 1585e812a24bb494e9e6e2bb4446f561, type: 3}
    - time: 0.25
      value: {fileID: 21300000, guid: 26aa2c19c0df8408cace5455b2bddaff, type: 3}
    - time: 0.33333334
      value: {fileID: 21300000, guid: f56928d4221f945048a96c52b65e041b, type: 3}
    - time: 0.41666666
      value: {fileID: 21300000, guid: bdae92c078c064946a63950f876aeb22, type: 3}
    - time: 0.5
      value: {fileID: 21300000, guid: 809b055228bcc4b2181573cd9bf60511, type: 3}
    - time: 0.5833333
      value: {fileID: 21300000, guid: 767ff9205946b4e1b9aa24adf0ff76ea, type: 3}
    - time: 0.6666667
      value: {fileID: 21300000, guid: cc875a3b2e50b49b4828b29cd600d363, type: 3}
    - time: 0.75
      value: {fileID: 21300000, guid: f0b59e98cba5241b88b96f49054b9d1c, type: 3}
    - time: 0.8333333
      value: {fileID: 21300000, guid: 6056fa6f494764bd7815698b60ed3550, type: 3}
    - time: 0.9166667
      value: {fileID: 21300000, guid: fe625dc0100864e4582a646066c28f67, type: 3}
    - time: 1
      value: {fileID: 21300000, guid: 9f69b267e129548a283fcf882d98e77b, type: 3}
    attribute: m_Sprite
    path: 
    classID: 212
    script: {fileID: 0}
  m_SampleRate: 12
  m_WrapMode: 0
  m_Bounds:
    m_Center: {x: 0, y: 0, z: 0}
    m_Extent: {x: 0, y: 0, z: 0}
  m_ClipBindingConstant:
    genericBindings:
    - path: 0
      attribute: 0
      script: {fileID: 0}
      classID: 212
      customType: 23
      isPPtrCurve: 1
    pptrCurveMapping:
    - {fileID: 21300000, guid: 1e34db0773f384c109179d40c4d83f72, type: 3}
    - {fileID: 21300000, guid: 9b89d7613b81c4efb818e861a57819f0, type: 3}
    - {fileID: 21300000, guid: 1585e812a24bb494e9e6e2bb4446f561, type: 3}
    - {fileID: 21300000, guid: 26aa2c19c0df8408cace5455b2bddaff, type: 3}
    - {fileID: 21300000, guid: f56928d4221f945048a96c52b65e041b, type: 3}
    - {fileID: 21300000, guid: bdae92c078c064946a63950f876aeb22, type: 3}
    - {fileID: 21300000, guid: 809b055228bcc4b2181573cd9bf60511, type: 3}
    - {fileID: 21300000, guid: 767ff9205946b4e1b9aa24adf0ff76ea, type: 3}
    - {fileID: 21300000, guid: cc875a3b2e50b49b4828b29cd600d363, type: 3}
    - {fileID: 21300000, guid: f0b59e98cba5241b88b96f49054b9d1c, type: 3}
    - {fileID: 21300000, guid: 6056fa6f494764bd7815698b60ed3550, type: 3}
    - {fileID: 21300000, guid: fe625dc0100864e4582a646066c28f67, type: 3}
    - {fileID: 21300000, guid: 9f69b267e129548a283fcf882d98e77b, type: 3}
  m_AnimationClipSettings:
    serializedVersion: 2
    m_AdditiveReferencePoseClip: {fileID: 0}
    m_AdditiveReferencePoseTime: 0
    m_StartTime: 0
    m_StopTime: 1.0833334
    m_OrientationOffsetY: 0
    m_Level: 0
    m_CycleOffset: 0
    m_HasAdditiveReferencePose: 0
    m_LoopTime: 1
    m_LoopBlend: 0
    m_LoopBlendOrientation: 0
    m_LoopBlendPositionY: 0
    m_LoopBlendPositionXZ: 0
    m_KeepOriginalOrientation: 0
    m_KeepOriginalPositionY: 1
    m_KeepOriginalPositionXZ: 0
    m_HeightFromFeet: 0
    m_Mirror: 0
  m_EditorCurves: []
  m_EulerEditorCurves: []
  m_HasGenericRootTransform: 0
  m_HasMotionFloatCurves: 0
  m_GenerateMotionCurves: 0
  m_Events:
  - time: 0.5
    functionName: enableChildren
    data: 
    objectReferenceParameter: {fileID: 0}
    floatParameter: 0
    intParameter: 0
    messageOptions: 0
