%YAML 1.1
%TAG !u! tag:unity3d.com,2011:
--- !u!74 &7400000
AnimationClip:
  m_ObjectHideFlags: 0
  m_PrefabParentObject: {fileID: 0}
  m_PrefabInternal: {fileID: 0}
  m_Name: must_run_anim
  serializedVersion: 6
  m_Legacy: 0
  m_Compressed: 0
  m_UseHighQualityCurve: 1
  m_RotationCurves: []
  m_CompressedRotationCurves: []
  m_EulerCurves: []
  m_PositionCurves: []
  m_ScaleCurves: []
  m_FloatCurves: []
  m_PPtrCurves:
  - curve:
    - time: 0
      value: {fileID: 21300000, guid: 3bcdbdb5f680a44ba948b6a71dc5d48e, type: 3}
    - time: 0.083333336
      value: {fileID: 21300000, guid: 1832f935a42cf40f59a317608cf03f5a, type: 3}
    - time: 0.16666667
      value: {fileID: 21300000, guid: 5762fbf9d9e7546b883042782070f558, type: 3}
    - time: 0.25
      value: {fileID: 21300000, guid: 76f9c3324bac2487ba853fa1a963da01, type: 3}
    - time: 0.33333334
      value: {fileID: 21300000, guid: be174dc7f046b42149ab2028ffa68ca0, type: 3}
    - time: 0.41666666
      value: {fileID: 21300000, guid: 7ffc7f738bc144296b3f59b849ddf6e0, type: 3}
    - time: 0.5
      value: {fileID: 21300000, guid: be43e98f593ac400b909747946b3ede4, type: 3}
    - time: 0.5833333
      value: {fileID: 21300000, guid: 94dc123f6373a47e494b6ddd431385bc, type: 3}
    attribute: m_Sprite
    path: 
    classID: 212
    script: {fileID: 0}
  m_SampleRate: 12
  m_WrapMode: 0
  m_Bounds:
    m_Center: {x: 0, y: 0, z: 0}
    m_Extent: {x: 0, y: 0, z: 0}
  m_ClipBindingConstant:
    genericBindings:
    - path: 0
      attribute: 0
      script: {fileID: 0}
      classID: 212
      customType: 23
      isPPtrCurve: 1
    pptrCurveMapping:
    - {fileID: 21300000, guid: 3bcdbdb5f680a44ba948b6a71dc5d48e, type: 3}
    - {fileID: 21300000, guid: 1832f935a42cf40f59a317608cf03f5a, type: 3}
    - {fileID: 21300000, guid: 5762fbf9d9e7546b883042782070f558, type: 3}
    - {fileID: 21300000, guid: 76f9c3324bac2487ba853fa1a963da01, type: 3}
    - {fileID: 21300000, guid: be174dc7f046b42149ab2028ffa68ca0, type: 3}
    - {fileID: 21300000, guid: 7ffc7f738bc144296b3f59b849ddf6e0, type: 3}
    - {fileID: 21300000, guid: be43e98f593ac400b909747946b3ede4, type: 3}
    - {fileID: 21300000, guid: 94dc123f6373a47e494b6ddd431385bc, type: 3}
  m_AnimationClipSettings:
    serializedVersion: 2
    m_AdditiveReferencePoseClip: {fileID: 0}
    m_AdditiveReferencePoseTime: 0
    m_StartTime: 0
    m_StopTime: 0.6666666
    m_OrientationOffsetY: 0
    m_Level: 0
    m_CycleOffset: 0
    m_HasAdditiveReferencePose: 0
    m_LoopTime: 1
    m_LoopBlend: 0
    m_LoopBlendOrientation: 0
    m_LoopBlendPositionY: 0
    m_LoopBlendPositionXZ: 0
    m_KeepOriginalOrientation: 0
    m_KeepOriginalPositionY: 1
    m_KeepOriginalPositionXZ: 0
    m_HeightFromFeet: 0
    m_Mirror: 0
  m_EditorCurves: []
  m_EulerEditorCurves: []
  m_HasGenericRootTransform: 0
  m_HasMotionFloatCurves: 0
  m_GenerateMotionCurves: 0
  m_Events: []
